INDEX VERSION 1.130+C:\Users\venga\OneDrive\Desktop\Handloom\Handllom\.metadata\.plugins\org.eclipse.jdt.core
1920933455.index
1134161154.index
2750461140.index
3069700620.index
2496485583.index
3379872725.index
1487579005.index
1646220526.index
350620620.index
3256896417.index
1868789775.index
2131974089.index
2345435108.index
1689150444.index
373042678.index
4133055274.index
2226513145.index
4220715967.index
3726908472.index
703360779.index
1127376786.index
1510207893.index
2224880995.index
1975843857.index
1817590782.index
3463160066.index
2739607657.index
4004618342.index
407884812.index
1286878750.index
3287475240.index
3408986294.index
2623972070.index
3072553995.index
3140546610.index
2150557979.index
1759763568.index
2878771145.index
411511113.index
3086795789.index
2766746534.index
2628906008.index
4228730820.index
1319396758.index
2626073271.index
2451950616.index
2000618999.index
868597140.index
2169543007.index
1227671783.index
4172307173.index
2583806171.index
1711525879.index
1780135739.index
3309236081.index
1899788409.index
1671842611.index
339420948.index
166005773.index
1210159354.index
3707246477.index
3607258288.index
161003033.index
705157005.index
3998068826.index
4100108703.index
3533572998.index
1892455975.index
3248290217.index
3744786756.index
1689907894.index
41935820.index
591574397.index
242014329.index
2582449867.index
962116203.index
4029234171.index
1836932521.index
1370071517.index
969192420.index
3806589031.index
2741674727.index
2103142420.index
1258538389.index
2859173928.index
